…
## Borrar Datos Char

En esta parte se procede con eliminar columnas que no nos sirven para
nuestro trabajo, ya que al hacer esto podremos concentrarnos en las
variables que son de interés para esta actividad y así trabajar en ellas
de manera mas ordenada.

``` r
primer_tiempo2020
```

    ## # A tibble: 130 x 49
    ##    torneo   equipo   id_partido  partido   fasepartido local tiempo accuratePass
    ##    <chr>    <chr>    <chr>       <chr>     <chr>       <lgl> <chr>         <dbl>
    ##  1 Primera~ Uni<f3>~ 6xszsf73jq~ Universi~ Regular Se~ FALSE fh              235
    ##  2 Primera~ Univers~ 6xszsf73jq~ Universi~ Regular Se~ TRUE  fh              199
    ##  3 Primera~ Everton  e88gat05jr~ Universi~ Regular Se~ FALSE fh              157
    ##  4 Primera~ Univers~ e88gat05jr~ Universi~ Regular Se~ TRUE  fh              192
    ##  5 Primera~ Curic<f~ 35ijq76er8~ Universi~ Regular Se~ FALSE fh              142
    ##  6 Primera~ Univers~ 35ijq76er8~ Universi~ Regular Se~ TRUE  fh              168
    ##  7 Primera~ Coquimb~ 9o9ji2f68p~ Universi~ Regular Se~ FALSE fh              190
    ##  8 Primera~ Univers~ 9o9ji2f68p~ Universi~ Regular Se~ TRUE  fh              200
    ##  9 Primera~ Santiag~ 357wqv3701~ Universi~ Regular Se~ FALSE fh              156
    ## 10 Primera~ Univers~ 357wqv3701~ Universi~ Regular Se~ TRUE  fh               92
    ## # ... with 120 more rows, and 41 more variables: wonTackle <dbl>,
    ## #   lostCorners <dbl>, goalsConceded <dbl>, saves <dbl>,
    ## #   ontargetScoringAtt <dbl>, totalScoringAtt <dbl>, subsMade <dbl>,
    ## #   totalThrows <dbl>, totalYellowCard <dbl>, goalKicks <dbl>, totalPass <dbl>,
    ## #   fkFoulWon <dbl>, totalTackle <dbl>, fkFoulLost <dbl>,
    ## #   possessionPercentage <dbl>, totalClearance <dbl>, formationUsed <dbl>,
    ## #   blockedScoringAtt <dbl>, goalAssist <dbl>, goals <dbl>, totalOffside <dbl>,
    ## #   shotOffTarget <dbl>, wonCorners <dbl>, cornerTaken <dbl>,
    ## #   penaltyConceded <dbl>, penaltyFaced <dbl>, penGoalsConceded <dbl>,
    ## #   penaltyWon <dbl>, ownGoals <dbl>, penaltySave <dbl>, secondYellow <dbl>,
    ## #   totalRedCard <dbl>, posesion_Rival <dbl>, precision_pases <dbl>,
    ## #   precision_tiros <dbl>, minutos_juego <dbl>, minutos_juegorival <dbl>,
    ## #   golesSalvados <dbl>, foulsInofensivos <dbl>, cortarJuegoContrario <dbl>,
    ## #   juegoCortado <dbl>

``` r
primer_tiempo2020 <- primer_tiempo2020[,!(colnames(primer_tiempo2020) %in% c("id_partido", "fasepartido", "local", "tiempo","formationUsed", "torneo"))]
primer_tiempo2020
```

    ## # A tibble: 130 x 43
    ##    equipo    partido      accuratePass wonTackle lostCorners goalsConceded saves
    ##    <chr>     <chr>               <dbl>     <dbl>       <dbl>         <dbl> <dbl>
    ##  1 Uni<f3>n~ Universidad~          235         2           3             1     4
    ##  2 Universi~ Universidad~          199         2           0             0     1
    ##  3 Everton   Universidad~          157         7           6             0     3
    ##  4 Universi~ Universidad~          192         4           1             0     2
    ##  5 Curic<f3~ Universidad~          142         6           3             2     2
    ##  6 Universi~ Universidad~          168         8           1             1     2
    ##  7 Coquimbo~ Universidad~          190         3           0             0     2
    ##  8 Universi~ Universidad~          200         5           0             0     0
    ##  9 Santiago~ Universidad~          156         4           3             0     0
    ## 10 Universi~ Universidad~           92         4           1             1     1
    ## # ... with 120 more rows, and 36 more variables: ontargetScoringAtt <dbl>,
    ## #   totalScoringAtt <dbl>, subsMade <dbl>, totalThrows <dbl>,
    ## #   totalYellowCard <dbl>, goalKicks <dbl>, totalPass <dbl>, fkFoulWon <dbl>,
    ## #   totalTackle <dbl>, fkFoulLost <dbl>, possessionPercentage <dbl>,
    ## #   totalClearance <dbl>, blockedScoringAtt <dbl>, goalAssist <dbl>,
    ## #   goals <dbl>, totalOffside <dbl>, shotOffTarget <dbl>, wonCorners <dbl>,
    ## #   cornerTaken <dbl>, penaltyConceded <dbl>, penaltyFaced <dbl>,
    ## #   penGoalsConceded <dbl>, penaltyWon <dbl>, ownGoals <dbl>,
    ## #   penaltySave <dbl>, secondYellow <dbl>, totalRedCard <dbl>,
    ## #   posesion_Rival <dbl>, precision_pases <dbl>, precision_tiros <dbl>,
    ## #   minutos_juego <dbl>, minutos_juegorival <dbl>, golesSalvados <dbl>,
    ## #   foulsInofensivos <dbl>, cortarJuegoContrario <dbl>, juegoCortado <dbl>

## Analisis descriptivo

En esta parte es guardan en orden descendente la precision de los pases
de los diferentes equipos presentes en la base de datos.

``` r
fh2020 <- primer_tiempo2020[order(primer_tiempo2020$accuratePass, decreasing = TRUE),]
fh2020
```

    ## # A tibble: 130 x 43
    ##    equipo    partido      accuratePass wonTackle lostCorners goalsConceded saves
    ##    <chr>     <chr>               <dbl>     <dbl>       <dbl>         <dbl> <dbl>
    ##  1 Universi~ Universidad~          269         2           3             0     2
    ##  2 Deportiv~ Deportivo A~          253        11           1             1     1
    ##  3 Uni<f3>n~ Uni<f3>n La~          252         6           3             1     3
    ##  4 Curic<f3~ Universidad~          245         5           2             0     2
    ##  5 Uni<f3>n~ Uni<f3>n La~          237         5           2             0     0
    ##  6 Uni<f3>n~ Universidad~          235         2           3             1     4
    ##  7 Colo Colo Colo Colo v~          231         4           0             0     0
    ##  8 Uni<f3>n~ Uni<f3>n Es~          224         7           0             1     0
    ##  9 Audax It~ Audax Itali~          220         2           1             1     1
    ## 10 Audax It~ Audax Itali~          219         6           1             0     0
    ## # ... with 120 more rows, and 36 more variables: ontargetScoringAtt <dbl>,
    ## #   totalScoringAtt <dbl>, subsMade <dbl>, totalThrows <dbl>,
    ## #   totalYellowCard <dbl>, goalKicks <dbl>, totalPass <dbl>, fkFoulWon <dbl>,
    ## #   totalTackle <dbl>, fkFoulLost <dbl>, possessionPercentage <dbl>,
    ## #   totalClearance <dbl>, blockedScoringAtt <dbl>, goalAssist <dbl>,
    ## #   goals <dbl>, totalOffside <dbl>, shotOffTarget <dbl>, wonCorners <dbl>,
    ## #   cornerTaken <dbl>, penaltyConceded <dbl>, penaltyFaced <dbl>,
    ## #   penGoalsConceded <dbl>, penaltyWon <dbl>, ownGoals <dbl>,
    ## #   penaltySave <dbl>, secondYellow <dbl>, totalRedCard <dbl>,
…
## Sub DataFrames

Ahora lo que se realiza es crear una nueva variable para de esta manera
ordenar los datos de interés y tener las variables mas ordenadas.
Posteriormente se re ordenan estos datos.

``` r
fh2020_pases = fh2020[,colnames(primer_tiempo2020) %in% c("equipo", "partido", "accuratePass", "totalPass", "precision_pases")]
fh2020_pases = fh2020_pases[order(fh2020_pases$precision_pases, decreasing = TRUE),]
fh2020_pases
```

    ## # A tibble: 130 x 5
    ##    equipo        partido                  accuratePass totalPass precision_pases
    ##    <chr>         <chr>                           <dbl>     <dbl>           <dbl>
    ##  1 Audax Italia~ Audax Italiano vs Cobre~          220       246            89.4
    ##  2 Universidad ~ Universidad Cat<f3>lica~          269       304            88.5
    ##  3 Uni<f3>n La ~ Uni<f3>n La Calera vs L~          252       285            88.4
    ##  4 Deportivo An~ Deportivo Antofagasta v~          253       289            87.5
    ##  5 Uni<f3>n La ~ Universidad de Chile vs~          235       271            86.7
    ##  6 Universidad ~ Huachipato vs Universid~          202       233            86.7
    ##  7 Colo Colo     Colo Colo vs Universida~          231       267            86.5
    ##  8 Deportivo An~ Deportivo Antofagasta v~          162       188            86.2
    ##  9 Universidad ~ Deportivo Antofagasta v~          202       235            86.0
    ## 10 Uni<f3>n La ~ Uni<f3>n La Calera vs U~          176       205            85.9
    ## # ... with 120 more rows

``` r
fh2020_tiros <- NULL
fh2020_tiros = fh2020[,colnames(primer_tiempo2020) %in% c("equipo", "partido", "goals", "ontargetScoringAtt", "totalScoringAtt", "blockedScoringAtt", "shotOffTarget", "precision_tiros")]
fh2020_tiros = fh2020_tiros[order(fh2020_tiros$goals, decreasing = TRUE),]
fh2020_tiros
```

    ## # A tibble: 130 x 8
    ##    equipo   partido      ontargetScoring~ totalScoringAtt blockedScoringA~ goals
    ##    <chr>    <chr>                   <dbl>           <dbl>            <dbl> <dbl>
    ##  1 Uni<f3>~ Uni<f3>n Es~                4               5                0     3
    ##  2 Univers~ Universidad~                3               8                2     2
    ##  3 Colo Co~ Colo Colo v~                4              10                2     2
    ##  4 Audax I~ Audax Itali~                3               9                2     2
    ##  5 Univers~ Deportivo A~                5               9                2     2
    ##  6 Univers~ Universidad~                4               7                1     2
    ##  7 Deporti~ Deportivo A~                5              14                4     2
    ##  8 Uni<f3>~ O'Higgins v~                3               4                1     2
    ##  9 Deporte~ Deportes Iq~                2               7                2     2
    ## 10 La Sere~ La Serena v~                4               7                1     2
    ## # ... with 120 more rows, and 2 more variables: shotOffTarget <dbl>,
    ## #   precision_tiros <dbl>
…
